{
    "1": {
      "floor": "Manor House First Floor",
      "room_type": "JSUI",
      "view": "Balcony flag pole, driveway & some car parks",
      "desk": "Yes",
      "armchair": "Yes",
      "sitting_area": "Window Seat, Sofa, Chairs",
      "coffe_table": "Yes",
      "fridge": "Yes",
      "full_mirror": "Yes",
      "shower_bath": "Yes",
      "roll_top_bath": "No",
      "bathroom_windows": "Yes",
      "connecting": "No",
      "size": "L",
      "notes": "Fire Place, Wood & Carpet"
    },
    "2": {
      "floor": "Manor House First Floor",
      "room_type": "JSUIX",
      "view": "Driveway & some car parks",
      "desk": "Yes",
      "armchair": "Yes",
      "sitting_area": "Window Seat, Sofa, Chairs",
      "coffe_table": "Yes",
      "fridge": "Yes",
      "full_mirror": "Yes",
      "shower_bath": "Yes",
      "roll_top_bath": "No",
      "bathroom_windows": "No",
      "connecting": "No",
      "size": "L",
      "notes": "Fire Place, Wood & Carpet"
    },
    "3": {
      "floor": "Manor House First Floor",
      "room_type": "JSUI",
      "view": "Driveway & some car parks",
      "desk": "Yes",
      "armchair": "Yes\n(No stall)",
      "sitting_area": "2 round Tables & Chairs",
      "coffe_table": "No",
      "fridge": "No",
      "full_mirror": "Yes",
      "shower_bath": "Yes",
      "roll_top_bath": "No",
      "bathroom_windows": "No",
      "connecting": "No",
      "size": "M/L",
      "notes": "Slightly small for a JSUI"
    },
    "4": {
      "floor": "Manor House First Floor",
      "room_type": "DS2",
      "view": "Deliverly area by Brunels & Bins",
      "desk": "Yes",
      "armchair": "Yes\n(No stall)",
      "sitting_area": "Table & Chair",
      "coffe_table": "No",
      "fridge": "No",
      "full_mirror": "Yes",
      "shower_bath": "Yes",
      "roll_top_bath": "No",
      "bathroom_windows": "No",
      "connecting": "No",
      "size": "M",
      "notes": "Fire Place"
    },
    "5": {
      "floor": "Manor House First Floor",
      "room_type": "JSUI",
      "view": "Orangery & Driveway",
      "desk": "Yes",
      "armchair": "Yes",
      "sitting_area": "Sofa, Table & Chairs",
      "coffe_table": "Yes",
      "fridge": "Yes",
      "full_mirror": "Yes",
      "shower_bath": "Yes",
      "roll_top_bath": "No",
      "bathroom_windows": "No",
      "connecting": "No",
      "size": "M",
      "notes": "One Bedside table"
    },
    "6": {
      "floor": "Manor House First Floor",
      "room_type": "JSUIX",
      "view": "Deliverly area by Brunels & Bins",
      "desk": "Yes",
      "armchair": "Yes",
      "sitting_area": "Sofa,Table & Chairs",
      "coffe_table": "Yes",
      "fridge": "No",
      "full_mirror": "Yes",
      "shower_bath": "Yes",
      "roll_top_bath": "No",
      "bathroom_windows": "No",
      "connecting": "No",
      "size": "L",
      "notes": "Sofa Bed"
    },
    "7": {
      "floor": "Manor House First Floor",
      "room_type": "JSUI",
      "view": "Deliverly area by Brunels & Bins",
      "desk": "Yes",
      "armchair": "Yes",
      "sitting_area": "Table & Chair",
      "coffe_table": "No",
      "fridge": "No",
      "full_mirror": "Yes",
      "shower_bath": "Yes",
      "roll_top_bath": "No",
      "bathroom_windows": "No",
      "connecting": "No",
      "size": "M",
      "notes": "One Bedside table"
    },
    "8": {
      "floor": "Manor House First Floor",
      "room_type": "JSUI",
      "view": "Deliverly area by Brunels & Bins",
      "desk": "Yes",
      "armchair": "Yes",
      "sitting_area": "Table & Chair",
      "coffe_table": "No",
      "fridge": "No",
      "full_mirror": "Yes",
      "shower_bath": "Yes",
      "roll_top_bath": "No",
      "bathroom_windows": "No",
      "connecting": "No",
      "size": "M",
      "notes": ""
    },
    "9": {
      "floor": "Manor House First Floor",
      "room_type": "JSUI",
      "view": "Roof & Half of Orangery",
      "desk": "Yes",
      "armchair": "Yes",
      "sitting_area": "Table & Chair",
      "coffe_table": "No",
      "fridge": "Yes",
      "full_mirror": "Yes",
      "shower_bath": "Yes",
      "roll_top_bath": "No",
      "bathroom_windows": "No",
      "connecting": "No",
      "size": "M",
      "notes": "Free Standing Wardrobe"
    },
    "10": {
      "floor": "Manor House First Floor",
      "room_type": "DS2",
      "view": "Glass Link Corridor",
      "desk": "Yes",
      "armchair": "Yes\n(No stall)",
      "sitting_area": "Table & Chair",
      "coffe_table": "No",
      "fridge": "No",
      "full_mirror": "Yes",
      "shower_bath": "Yes",
      "roll_top_bath": "No",
      "bathroom_windows": "No",
      "connecting": "No",
      "size": "S/M",
      "notes": ""
    },
    "11": {
      "floor": "Manor House First Floor",
      "room_type": "DS2",
      "view": "Glass Link Corridor",
      "desk": "Yes",
      "armchair": "Yes",
      "sitting_area": "Table & Chair",
      "coffe_table": "No",
      "fridge": "No",
      "full_mirror": "Yes",
      "shower_bath": "Yes",
      "roll_top_bath": "No",
      "bathroom_windows": "No",
      "connecting": "No",
      "size": "S",
      "notes": "Small Bathrom"
    },
    "12": {
      "floor": "Manor House First Floor",
      "room_type": "JSUI",
      "view": "No View",
      "desk": "Yes",
      "armchair": "Yes",
      "sitting_area": "Sofa, Table & Chairs",
      "coffe_table": "Yes",
      "fridge": "No",
      "full_mirror": "Yes",
      "shower_bath": "Yes",
      "roll_top_bath": "No",
      "bathroom_windows": "No",
      "connecting": "No",
      "size": "M/L",
      "notes": "High Windows"
    },
    "14": {
      "floor": "Manor House First Floor",
      "room_type": "JSUI",
      "view": "Beech Car Park",
      "desk": "Yes",
      "armchair": "Yes",
      "sitting_area": "Table & Chair",
      "coffe_table": "No",
      "fridge": "No",
      "full_mirror": "Yes",
      "shower_bath": "Yes",
      "roll_top_bath": "No",
      "bathroom_windows": "No",
      "connecting": "No",
      "size": "M",
      "notes": ""
    },
    "15": {
      "floor": "Manor House First Floor",
      "room_type": "JSUI",
      "view": "Roof Tiles",
      "desk": "Yes",
      "armchair": "Yes",
      "sitting_area": "Table & Chair",
      "coffe_table": "No",
      "fridge": "No",
      "full_mirror": "Yes",
      "shower_bath": "Yes",
      "roll_top_bath": "No",
      "bathroom_windows": "Yes",
      "connecting": "No",
      "size": "M",
      "notes": ""
    },
    "16": {
      "floor": "Manor House First Floor",
      "room_type": "DS2",
      "view": "View is over the beech carpark",
      "desk": "Yes",
      "armchair": "Yes\n(No stall)",
      "sitting_area": "Table & Chair",
      "coffe_table": "No",
      "fridge": "No",
      "full_mirror": "Yes",
      "shower_bath": "Yes",
      "roll_top_bath": "No",
      "bathroom_windows": "No",
      "connecting": "No",
      "size": "M",
      "notes": ""
    },
    "17": {
      "floor": "Manor House First Floor",
      "room_type": "DS2",
      "view": "View is over the kitchen & Westminster roof",
      "desk": "Yes",
      "armchair": "Yes\n(No stall)",
      "sitting_area": "Table & Chair",
      "coffe_table": "No",
      "fridge": "No",
      "full_mirror": "Yes",
      "shower_bath": "Yes",
      "roll_top_bath": "No",
      "bathroom_windows": "No",
      "connecting": "No",
      "size": "M",
      "notes": ""
    },
    "18": {
      "floor": "Manor House First Floor",
      "room_type": "JSUIX",
      "view": "View of the Tree",
      "desk": "Yes",
      "armchair": "Yes",
      "sitting_area": "Table & Chair",
      "coffe_table": "No",
      "fridge": "No",
      "full_mirror": "Yes",
      "shower_bath": "Yes",
      "roll_top_bath": "No",
      "bathroom_windows": "No",
      "connecting": "No",
      "size": "M/L",
      "notes": "Free Standing Wardrobe"
    },
    "19": {
      "floor": "Manor House First Floor",
      "room_type": "JSUI",
      "view": "View of the Tree",
      "desk": "Yes",
      "armchair": "Yes",
      "sitting_area": "Table & Chair",
      "coffe_table": "No",
      "fridge": "No",
      "full_mirror": "Yes",
      "shower_bath": "Yes",
      "roll_top_bath": "No",
      "bathroom_windows": "No",
      "connecting": "No",
      "size": "M",
      "notes": ""
    },
    "20": {
      "floor": "Manor House First Floor",
      "room_type": "JSUI",
      "view": "View of bins and old marquee areas \n& some grounds",
      "desk": "Yes",
      "armchair": "Yes",
      "sitting_area": "Table & Chair",
      "coffe_table": "No",
      "fridge": "No",
      "full_mirror": "Yes",
      "shower_bath": "Yes",
      "roll_top_bath": "No",
      "bathroom_windows": "No",
      "connecting": "No",
      "size": "M",
      "notes": ""
    },
    "21": {
      "floor": "Manor House First Floor",
      "room_type": "JSUI",
      "view": "View of bins and old marquee areas \n& some grounds",
      "desk": "Yes",
      "armchair": "Yes",
      "sitting_area": "Table & Chair",
      "coffe_table": "No",
      "fridge": "No",
      "full_mirror": "Yes",
      "shower_bath": "Yes",
      "roll_top_bath": "No",
      "bathroom_windows": "No",
      "connecting": "No",
      "size": "M",
      "notes": ""
    },
    "22": {
      "floor": "Manor House First Floor",
      "room_type": "JSUI",
      "view": "View of old marquee area (bins not in view)",
      "desk": "Yes",
      "armchair": "Yes",
      "sitting_area": "Table & Chair",
      "coffe_table": "No",
      "fridge": "No",
      "full_mirror": "Yes",
      "shower_bath": "Yes",
      "roll_top_bath": "No",
      "bathroom_windows": "No",
      "connecting": "No",
      "size": "M",
      "notes": ""
    },
    "23": {
      "floor": "Manor House First Floor",
      "room_type": "JSUI",
      "view": "View of old marquee area  and bins",
      "desk": "Yes",
      "armchair": "Yes",
      "sitting_area": "Table & Chair",
      "coffe_table": "No",
      "fridge": "Yes",
      "full_mirror": "Yes",
      "shower_bath": "Yes",
      "roll_top_bath": "No",
      "bathroom_windows": "No",
      "connecting": "No",
      "size": "M",
      "notes": ""
    },
    "24": {
      "floor": "Manor House First Floor",
      "room_type": "JSUIX",
      "view": "View of grounds and old marquee area",
      "desk": "Yes",
      "armchair": "Yes",
      "sitting_area": "Sofas and Table",
      "coffe_table": "Yes",
      "fridge": "Yes",
      "full_mirror": "Yes",
      "shower_bath": "Yes",
      "roll_top_bath": "No",
      "bathroom_windows": "No",
      "connecting": "No",
      "size": "XL",
      "notes": "Free Standing Wardrobe"
    },
    "25": {
      "floor": "Manor House First Floor",
      "room_type": "SUI",
      "view": "Two windows one view over looks terrace the other window over looks grounds",
      "desk": "Yes",
      "armchair": "Yes",
      "sitting_area": "Sofas and Table",
      "coffe_table": "Yes",
      "fridge": "Yes",
      "full_mirror": "Yes",
      "shower_bath": "No",
      "roll_top_bath": "Yes",
      "bathroom_windows": "Yes",
      "connecting": "No",
      "size": "XL",
      "notes": ""
    },
    "26": {
      "floor": "Manor House First Floor",
      "room_type": "SUIX",
      "view": "Gardens,Terrance & Lake",
      "desk": "Yes",
      "armchair": "Yes",
      "sitting_area": "Full Dining Table and Sofa",
      "coffe_table": "Yes",
      "fridge": "Yes",
      "full_mirror": "Yes",
      "shower_bath": "Yes",
      "roll_top_bath": "No",
      "bathroom_windows": "No",
      "connecting": "Yes",
      "size": "XL",
      "notes": "Free Standing Wardrobe"
    },
    "27": {
      "floor": "Manor House First Floor",
      "room_type": "JSUI",
      "view": "Gardens,Terrance & Lake",
      "desk": "Yes",
      "armchair": "Yes\n(2 Chairs)",
      "sitting_area": "Table & Chair",
      "coffe_table": "No",
      "fridge": "No",
      "full_mirror": "Yes",
      "shower_bath": "No",
      "roll_top_bath": "No",
      "bathroom_windows": "No",
      "connecting": "Yes",
      "size": "M",
      "notes": ""
    },
    "28": {
      "floor": "Manor House First Floor",
      "room_type": "SUI",
      "view": "Balcony flag pole, driveway & some car parks",
      "desk": "Yes",
      "armchair": "Yes",
      "sitting_area": "Sofas and Table",
      "coffe_table": "Yes",
      "fridge": "Yes",
      "full_mirror": "Yes",
      "shower_bath": "Yes",
      "roll_top_bath": "No",
      "bathroom_windows": "No",
      "connecting": "No",
      "size": "L",
      "notes": "Free Standing Wardrobe"
    },
    "30": {
      "floor": "Manor House Second Floor",
      "room_type": "DS2",
      "view": "Driveway",
      "desk": "Yes",
      "armchair": "Yes",
      "sitting_area": "Table & Chair",
      "coffe_table": "No",
      "fridge": "No",
      "full_mirror": "Yes",
      "shower_bath": "Yes",
      "roll_top_bath": "No",
      "bathroom_windows": "Yes",
      "connecting": "No",
      "size": "S/M",
      "notes": "Single Wardrobe,\nNo Hanging Space"
    },
    "31": {
      "floor": "Manor House Second Floor",
      "room_type": "DS2",
      "view": "Roof Tiles",
      "desk": "Yes",
      "armchair": "Yes",
      "sitting_area": "Table & Chair",
      "coffe_table": "No",
      "fridge": "No",
      "full_mirror": "No",
      "shower_bath": "Yes",
      "roll_top_bath": "No",
      "bathroom_windows": "No",
      "connecting": "No",
      "size": "M",
      "notes": ""
    },
    "32": {
      "floor": "Manor House Second Floor",
      "room_type": "JSUIX",
      "view": "Front with Driveway & Flag",
      "desk": "Yes",
      "armchair": "Yes",
      "sitting_area": "Sofa, Table & Chairs",
      "coffe_table": "Yes",
      "fridge": "Yes",
      "full_mirror": "Yes",
      "shower_bath": "Yes",
      "roll_top_bath": "No",
      "bathroom_windows": "No",
      "connecting": "No",
      "size": "L",
      "notes": "Shower with a Step"
    },
    "33": {
      "floor": "Manor House Second Floor",
      "room_type": "JSUI",
      "view": "Driveway",
      "desk": "Yes",
      "armchair": "Yes\n(No stall)",
      "sitting_area": "Table & Chair",
      "coffe_table": "No",
      "fridge": "No",
      "full_mirror": "No",
      "shower_bath": "Yes",
      "roll_top_bath": "No",
      "bathroom_windows": "No",
      "connecting": "No",
      "size": "M/L",
      "notes": ""
    },
    "34": {
      "floor": "Manor House Second Floor",
      "room_type": "JSUIX",
      "view": "Gardens,Terrance & Lake",
      "desk": "Yes",
      "armchair": "Yes\n(No stall)",
      "sitting_area": "Sofa, Table & Chairs",
      "coffe_table": "Yes",
      "fridge": "Yes",
      "full_mirror": "Yes",
      "shower_bath": "Yes",
      "roll_top_bath": "No",
      "bathroom_windows": "No",
      "connecting": "No",
      "size": "M/L",
      "notes": "Zip & Link, Beams"
    },
    "35": {
      "floor": "Manor House Second Floor",
      "room_type": "JSUI",
      "view": "Gardens, Terrance & Lake",
      "desk": "Yes",
      "armchair": "Yes\n(No stall)",
      "sitting_area": "Table & Chair",
      "coffe_table": "No",
      "fridge": "No",
      "full_mirror": "No",
      "shower_bath": "Yes",
      "roll_top_bath": "No",
      "bathroom_windows": "No",
      "connecting": "No",
      "size": "M",
      "notes": "Sofa Bed"
    },
    "36": {
      "floor": "Manor House Second Floor",
      "room_type": "JSUI",
      "view": "Gardens, Terrance & Lake",
      "desk": "Yes",
      "armchair": "Yes\n(No stall)",
      "sitting_area": "Table & Chair",
      "coffe_table": "No",
      "fridge": "No",
      "full_mirror": "Yes",
      "shower_bath": "Yes",
      "roll_top_bath": "No",
      "bathroom_windows": "No",
      "connecting": "No",
      "size": "M",
      "notes": ""
    },
    "37": {
      "floor": "Manor House Second Floor",
      "room_type": "JSUIX",
      "view": "Gardens, Terrance & Lake",
      "desk": "Yes",
      "armchair": "Yes",
      "sitting_area": "Table & Chair",
      "coffe_table": "Yes",
      "fridge": "No",
      "full_mirror": "Yes",
      "shower_bath": "Yes",
      "roll_top_bath": "No",
      "bathroom_windows": "No",
      "connecting": "No",
      "size": "M/L",
      "notes": "Zip & Link"
    },
    "38": {
      "floor": "Manor House Second Floor",
      "room_type": "DS2",
      "view": "Roof Tiles",
      "desk": "Yes",
      "armchair": "Yes",
      "sitting_area": "Table & Chair",
      "coffe_table": "No",
      "fridge": "No",
      "full_mirror": "Yes",
      "shower_bath": "Yes",
      "roll_top_bath": "No",
      "bathroom_windows": "No",
      "connecting": "No",
      "size": "S/M",
      "notes": ""
    },
    "39": {
      "floor": "Manor House Second Floor",
      "room_type": "JSUIX",
      "view": "Over looks old marquee area",
      "desk": "Yes",
      "armchair": "Yes\n(No stall)",
      "sitting_area": "Sofa, Table & Chairs",
      "coffe_table": "Yes",
      "fridge": "No",
      "full_mirror": "Yes",
      "shower_bath": "Yes",
      "roll_top_bath": "No",
      "bathroom_windows": "No",
      "connecting": "No",
      "size": "L/XL",
      "notes": "Shower with a Step"
    },
    "40": {
      "floor": "Manor House Second Floor",
      "room_type": "DS2",
      "view": "No View",
      "desk": "Yes",
      "armchair": "Yes",
      "sitting_area": "Table & Chair",
      "coffe_table": "No",
      "fridge": "No",
      "full_mirror": "Yes",
      "shower_bath": "Yes",
      "roll_top_bath": "No",
      "bathroom_windows": "No",
      "connecting": "No",
      "size": "S/M",
      "notes": ""
    },
    "41": {
      "floor": "Manor House Second Floor",
      "room_type": "JSUI",
      "view": "Over looks kitchen delivery area / bins",
      "desk": "Yes",
      "armchair": "Yes",
      "sitting_area": "Table & Chair",
      "coffe_table": "No",
      "fridge": "No",
      "full_mirror": "Yes",
      "shower_bath": "Yes",
      "roll_top_bath": "No",
      "bathroom_windows": "No",
      "connecting": "No",
      "size": "S/M",
      "notes": ""
    },
    "42": {
      "floor": "Manor House Second Floor",
      "room_type": "JSUI",
      "view": "Over looks Westminster roof & old marquee\narea and bins are visible",
      "desk": "Yes",
      "armchair": "Yes\n(No stall)",
      "sitting_area": "Table & Chair",
      "coffe_table": "Yes",
      "fridge": "Yes",
      "full_mirror": "Yes",
      "shower_bath": "Yes",
      "roll_top_bath": "No",
      "bathroom_windows": "No",
      "connecting": "No",
      "size": "M/L",
      "notes": ""
    },
    "43": {
      "floor": "Manor House Second Floor",
      "room_type": "JSUI",
      "view": "Over looks Westminster roof & old marquee\narea and bins are visible",
      "desk": "Yes",
      "armchair": "Yes",
      "sitting_area": "Table & Chair",
      "coffe_table": "No",
      "fridge": "No",
      "full_mirror": "Yes",
      "shower_bath": "Yes",
      "roll_top_bath": "No",
      "bathroom_windows": "Yes",
      "connecting": "No",
      "size": "M",
      "notes": ""
    },
    "44": {
      "floor": "Manor House Second Floor",
      "room_type": "DS2",
      "view": "Over looks Westminster roof & old marquee\narea and bins are visible",
      "desk": "Yes",
      "armchair": "Yes\n(No stall)",
      "sitting_area": "Table & Chair",
      "coffe_table": "No",
      "fridge": "No",
      "full_mirror": "Yes",
      "shower_bath": "Yes",
      "roll_top_bath": "No",
      "bathroom_windows": "No",
      "connecting": "No",
      "size": "S/M",
      "notes": ""
    },
    "45": {
      "floor": "Manor House Second Floor",
      "room_type": "JSUI",
      "view": "View is overlooking old marquee area",
      "desk": "Yes",
      "armchair": "Yes\n(No stall)",
      "sitting_area": "Table & Chair",
      "coffe_table": "Yes",
      "fridge": "No",
      "full_mirror": "Yes",
      "shower_bath": "Yes",
      "roll_top_bath": "No",
      "bathroom_windows": "No",
      "connecting": "No",
      "size": "M/L",
      "notes": "Zip & Link"
    },
    "46": {
      "floor": "Manor House Second Floor",
      "room_type": "JSUI",
      "view": "View is overlooking old marquee area",
      "desk": "Yes",
      "armchair": "Yes",
      "sitting_area": "Table & Chair",
      "coffe_table": "Yes",
      "fridge": "Yes",
      "full_mirror": "Yes",
      "shower_bath": "Yes",
      "roll_top_bath": "No",
      "bathroom_windows": "No",
      "connecting": "No",
      "size": "M",
      "notes": "Zip & Link"
    },
    "47": {
      "floor": "Manor House Second Floor",
      "room_type": "JSUI",
      "view": "View is overlooking old marquee area",
      "desk": "Yes",
      "armchair": "Yes",
      "sitting_area": "Table & Chair",
      "coffe_table": "Yes",
      "fridge": "No",
      "full_mirror": "Yes",
      "shower_bath": "Yes",
      "roll_top_bath": "No",
      "bathroom_windows": "No",
      "connecting": "No",
      "size": "M/L",
      "notes": "Zip & Link"
    },
    "48": {
      "floor": "Manor House Second Floor",
      "room_type": "JSUIX",
      "view": "View is overlooking old marquee area",
      "desk": "Yes",
      "armchair": "Yes",
      "sitting_area": "Table & Chair",
      "coffe_table": "Yes",
      "fridge": "Yes",
      "full_mirror": "Yes",
      "shower_bath": "Yes",
      "roll_top_bath": "No",
      "bathroom_windows": "No",
      "connecting": "No",
      "size": "M/L",
      "notes": ""
    },
    "49": {
      "floor": "Manor House Second Floor",
      "room_type": "JSUI",
      "view": "Over looks beech carpark",
      "desk": "Yes",
      "armchair": "Yes",
      "sitting_area": "Table & Chair",
      "coffe_table": "No",
      "fridge": "Yes",
      "full_mirror": "Yes",
      "shower_bath": "Yes",
      "roll_top_bath": "No",
      "bathroom_windows": "No",
      "connecting": "No",
      "size": "M",
      "notes": ""
    },
    "50": {
      "floor": "Manor House Second Floor",
      "room_type": "JSUIX",
      "view": "Over looks beech carpark",
      "desk": "Yes",
      "armchair": "Yes",
      "sitting_area": "Table & Chair",
      "coffe_table": "Yes",
      "fridge": "No",
      "full_mirror": "Yes",
      "shower_bath": "Yes",
      "roll_top_bath": "No",
      "bathroom_windows": "No",
      "connecting": "No",
      "size": "M/L",
      "notes": "Big Window"
    },
    "51": {
      "floor": "Manor House Second Floor",
      "room_type": "JSUI",
      "view": "Over looks beech carpark and link roof",
      "desk": "Yes",
      "armchair": "Yes",
      "sitting_area": "Table & Chair",
      "coffe_table": "No",
      "fridge": "No",
      "full_mirror": "Yes",
      "shower_bath": "Yes",
      "roll_top_bath": "No",
      "bathroom_windows": "No",
      "connecting": "No",
      "size": "M",
      "notes": ""
    },
    "52": {
      "floor": "Manor House Second Floor",
      "room_type": "DS2",
      "view": "Courtyard Car Park",
      "desk": "Yes",
      "armchair": "Yes",
      "sitting_area": "Table & Chair",
      "coffe_table": "No",
      "fridge": "No",
      "full_mirror": "Yes",
      "shower_bath": "Yes",
      "roll_top_bath": "No",
      "bathroom_windows": "No",
      "connecting": "No",
      "size": "M",
      "notes": ""
    },
    "53": {
      "floor": "Manor House Second Floor",
      "room_type": "DS2",
      "view": "Courtyard Car Park",
      "desk": "Yes",
      "armchair": "Yes",
      "sitting_area": "Table & Chair",
      "coffe_table": "No",
      "fridge": "No",
      "full_mirror": "Yes",
      "shower_bath": "No",
      "roll_top_bath": "No",
      "bathroom_windows": "Yes",
      "connecting": "No",
      "size": "M",
      "notes": ""
    },
    "54": {
      "floor": "Manor House Second Floor",
      "room_type": "SUI",
      "view": "View over the orangery and carparks",
      "desk": "Yes",
      "armchair": "Yes",
      "sitting_area": "Table & Chair",
      "coffe_table": "Yes",
      "fridge": "No",
      "full_mirror": "Yes",
      "shower_bath": "Yes",
      "roll_top_bath": "No",
      "bathroom_windows": "No",
      "connecting": "No",
      "size": "XL",
      "notes": "Zip & Link"
    },
    "56": {
      "floor": "Manor House Second Floor",
      "room_type": "JSUI",
      "view": "View over the orangery and carparks",
      "desk": "Yes",
      "armchair": "Yes\n(2 Chairs)",
      "sitting_area": "Table & Chair",
      "coffe_table": "Yes",
      "fridge": "No",
      "full_mirror": "Yes",
      "shower_bath": "No",
      "roll_top_bath": "No",
      "bathroom_windows": "No",
      "connecting": "No",
      "size": "M",
      "notes": ""
    },
    "57": {
      "floor": "Manor House Second Floor",
      "room_type": "JSUIX",
      "view": "Over looks side of the entrance to the\nhotel  & over looks carparks",
      "desk": "Yes",
      "armchair": "Yes",
      "sitting_area": "Table & Chair",
      "coffe_table": "Yes",
      "fridge": "No",
      "full_mirror": "Yes",
      "shower_bath": "Yes",
      "roll_top_bath": "No",
      "bathroom_windows": "No",
      "connecting": "No",
      "size": "L",
      "notes": ""
    },
    "58": {
      "floor": "Manor House Second Floor",
      "room_type": "JSUIX",
      "view": "View over the orangery and carparks",
      "desk": "Yes",
      "armchair": "Yes",
      "sitting_area": "Sofa, Table & Chairs",
      "coffe_table": "Yes",
      "fridge": "Yes",
      "full_mirror": "Yes",
      "shower_bath": "Yes",
      "roll_top_bath": "No",
      "bathroom_windows": "No",
      "connecting": "No",
      "size": "L",
      "notes": ""
    },
    "80": {
      "floor": "Courtyard Ground Floor",
      "room_type": "JSUI",
      "view": "Courtyard Car Park",
      "desk": "Yes",
      "armchair": "No",
      "sitting_area": "Round Table with Two Chairs",
      "coffe_table": "No",
      "fridge": "No",
      "full_mirror": "Yes",
      "shower_bath": "Yes",
      "roll_top_bath": "No",
      "bathroom_windows": "No",
      "connecting": "No",
      "size": "M/L",
      "notes": "Stairs to Bedroom, Very Medieval."
    },
    "81": {
      "floor": "Courtyard Ground Floor",
      "room_type": "D2",
      "view": "Pine Car Park",
      "desk": "Yes",
      "armchair": "No",
      "sitting_area": "Round Table with Two Chairs",
      "coffe_table": "No",
      "fridge": "No",
      "full_mirror": "Yes",
      "shower_bath": "Yes",
      "roll_top_bath": "No",
      "bathroom_windows": "No",
      "connecting": "Yes",
      "size": "M",
      "notes": ""
    },
    "82": {
      "floor": "Courtyard Ground Floor",
      "room_type": "D2",
      "view": "Pine Car Park",
      "desk": "Yes",
      "armchair": "No",
      "sitting_area": "Round Table with One Chair",
      "coffe_table": "No",
      "fridge": "No",
      "full_mirror": "Yes",
      "shower_bath": "Yes",
      "roll_top_bath": "No",
      "bathroom_windows": "No",
      "connecting": "Yes",
      "size": "M",
      "notes": ""
    },
    "83": {
      "floor": "Courtyard Ground Floor",
      "room_type": "DS2",
      "view": "Pine Car Park",
      "desk": "Yes",
      "armchair": "No",
      "sitting_area": "Round Table with Two Chairs",
      "coffe_table": "No",
      "fridge": "No",
      "full_mirror": "Yes",
      "shower_bath": "Yes",
      "roll_top_bath": "No",
      "bathroom_windows": "No",
      "connecting": "No",
      "size": "M",
      "notes": ""
    },
    "84": {
      "floor": "Courtyard Ground Floor",
      "room_type": "DS2",
      "view": "Courtyard Car Park",
      "desk": "Yes",
      "armchair": "No",
      "sitting_area": "Round Table with Two Chairs",
      "coffe_table": "No",
      "fridge": "No",
      "full_mirror": "Yes",
      "shower_bath": "Yes",
      "roll_top_bath": "No",
      "bathroom_windows": "No",
      "connecting": "No",
      "size": "M",
      "notes": "Sofa Bed"
    },
    "85": {
      "floor": "Courtyard First Floor",
      "room_type": "DS2",
      "view": "Pine Car Park",
      "desk": "Yes",
      "armchair": "No",
      "sitting_area": "Round Table with Two Chairs",
      "coffe_table": "No",
      "fridge": "No",
      "full_mirror": "Yes",
      "shower_bath": "Yes",
      "roll_top_bath": "No",
      "bathroom_windows": "No",
      "connecting": "No",
      "size": "M/L",
      "notes": "Zip & Link - Sofa Bed"
    },
    "86": {
      "floor": "Courtyard First Floor",
      "room_type": "DS2",
      "view": "Pine Car Park",
      "desk": "Yes",
      "armchair": "No",
      "sitting_area": "Round Table with Two Chairs",
      "coffe_table": "No",
      "fridge": "No",
      "full_mirror": "Yes",
      "shower_bath": "Yes",
      "roll_top_bath": "No",
      "bathroom_windows": "No",
      "connecting": "No",
      "size": "M",
      "notes": "Zip & Link - Sofa Bed"
    },
    "87": {
      "floor": "Courtyard First Floor",
      "room_type": "DS2",
      "view": "Pine Car Park & Orangery",
      "desk": "Yes",
      "armchair": "No",
      "sitting_area": "Round Table with One Chair",
      "coffe_table": "No",
      "fridge": "No",
      "full_mirror": "Yes",
      "shower_bath": "Yes",
      "roll_top_bath": "No",
      "bathroom_windows": "No",
      "connecting": "No",
      "size": "M/L",
      "notes": "Sofa Bed"
    },
    "88": {
      "floor": "Courtyard First Floor",
      "room_type": "D2",
      "view": "Courtyard Car Park",
      "desk": "Yes",
      "armchair": "No",
      "sitting_area": "Round Table with Two Chairs",
      "coffe_table": "No",
      "fridge": "No",
      "full_mirror": "Yes",
      "shower_bath": "Yes",
      "roll_top_bath": "No",
      "bathroom_windows": "No",
      "connecting": "No",
      "size": "M",
      "notes": ""
    },
    "100": {
      "floor": "Courtyard Ground Floor",
      "room_type": "D2",
      "view": "Beech Car Park",
      "desk": "Yes",
      "armchair": "No",
      "sitting_area": "Round Table with Two Chairs",
      "coffe_table": "No",
      "fridge": "No",
      "full_mirror": "Yes",
      "shower_bath": "Yes",
      "roll_top_bath": "No",
      "bathroom_windows": "No",
      "connecting": "No",
      "size": "S",
      "notes": ""
    },
    "101": {
      "floor": "Courtyard Ground Floor",
      "room_type": "D2",
      "view": "Beech Car Park",
      "desk": "Yes",
      "armchair": "No",
      "sitting_area": "Round Table with Two Chairs",
      "coffe_table": "No",
      "fridge": "No",
      "full_mirror": "Yes",
      "shower_bath": "Yes",
      "roll_top_bath": "No",
      "bathroom_windows": "No",
      "connecting": "No",
      "size": "S/M",
      "notes": ""
    },
    "102": {
      "floor": "Courtyard Ground Floor",
      "room_type": "DS2",
      "view": "Beech Car Park",
      "desk": "Yes",
      "armchair": "No",
      "sitting_area": "Round Table with Two Chairs",
      "coffe_table": "No",
      "fridge": "No",
      "full_mirror": "Yes",
      "shower_bath": "Yes",
      "roll_top_bath": "No",
      "bathroom_windows": "No",
      "connecting": "No",
      "size": "M/L",
      "notes": "Sofa Bed"
    },
    "103": {
      "floor": "Courtyard Ground Floor",
      "room_type": "DS2",
      "view": "Beech Car Park",
      "desk": "Yes",
      "armchair": "No",
      "sitting_area": "Two Chairs",
      "coffe_table": "No",
      "fridge": "No",
      "full_mirror": "Yes",
      "shower_bath": "Yes",
      "roll_top_bath": "No",
      "bathroom_windows": "No",
      "connecting": "No",
      "size": "M/L",
      "notes": "Zip & Link"
    },
    "104": {
      "floor": "Courtyard Ground Floor",
      "room_type": "D2",
      "view": "Beech Car Park",
      "desk": "Yes",
      "armchair": "No",
      "sitting_area": "Round Table with Two Chairs",
      "coffe_table": "No",
      "fridge": "No",
      "full_mirror": "Yes",
      "shower_bath": "Yes",
      "roll_top_bath": "No",
      "bathroom_windows": "No",
      "connecting": "No",
      "size": "S/M",
      "notes": ""
    },
    "105": {
      "floor": "Courtyard Ground Floor",
      "room_type": "D2",
      "view": "Beech Car Park",
      "desk": "Yes",
      "armchair": "No",
      "sitting_area": "Round Table with Two Chairs",
      "coffe_table": "No",
      "fridge": "No",
      "full_mirror": "Yes",
      "shower_bath": "Yes",
      "roll_top_bath": "No",
      "bathroom_windows": "No",
      "connecting": "No",
      "size": "S/M",
      "notes": ""
    },
    "106": {
      "floor": "Courtyard Ground Floor",
      "room_type": "DSP2",
      "view": "Courtyard Garden",
      "desk": "Yes",
      "armchair": "No",
      "sitting_area": "Round Table with Two Chairs and Sofa",
      "coffe_table": "No",
      "fridge": "No",
      "full_mirror": "Yes",
      "shower_bath": "Yes",
      "roll_top_bath": "No",
      "bathroom_windows": "No",
      "connecting": "No",
      "size": "M/L",
      "notes": "Sofa Bed"
    },
    "107": {
      "floor": "Courtyard Ground Floor",
      "room_type": "DSP2",
      "view": "Courtyard Garden",
      "desk": "Yes",
      "armchair": "No",
      "sitting_area": "Round Table with Two Chairs and Sofa",
      "coffe_table": "No",
      "fridge": "No",
      "full_mirror": "Yes",
      "shower_bath": "Yes",
      "roll_top_bath": "No",
      "bathroom_windows": "No",
      "connecting": "No",
      "size": "M/L",
      "notes": "Sofa Bed & Zip & Link"
    },
    "108": {
      "floor": "Courtyard Ground Floor",
      "room_type": "DSP2",
      "view": "Courtyard Garden",
      "desk": "Yes",
      "armchair": "No",
      "sitting_area": "Round Table with Two Chairs and Sofa",
      "coffe_table": "No",
      "fridge": "No",
      "full_mirror": "Yes",
      "shower_bath": "Yes",
      "roll_top_bath": "No",
      "bathroom_windows": "No",
      "connecting": "No",
      "size": "M",
      "notes": "Zip & Link"
    },
    "109": {
      "floor": "Courtyard Ground Floor",
      "room_type": "D2",
      "view": "Beech Car Park",
      "desk": "Yes",
      "armchair": "No",
      "sitting_area": "Round Table with Two Chairs",
      "coffe_table": "No",
      "fridge": "No",
      "full_mirror": "Yes",
      "shower_bath": "Yes",
      "roll_top_bath": "No",
      "bathroom_windows": "No",
      "connecting": "No",
      "size": "M",
      "notes": ""
    },
    "110": {
      "floor": "Courtyard Ground Floor",
      "room_type": "DSP2",
      "view": "Courtyard Garden",
      "desk": "Yes",
      "armchair": "No",
      "sitting_area": "Round Table with Two Chairs",
      "coffe_table": "No",
      "fridge": "No",
      "full_mirror": "Yes",
      "shower_bath": "Yes",
      "roll_top_bath": "No",
      "bathroom_windows": "No",
      "connecting": "No",
      "size": "M",
      "notes": "Sofa Bed & Zip & Link"
    },
    "111": {
      "floor": "Courtyard Ground Floor",
      "room_type": "T2",
      "view": "Beech Car Park",
      "desk": "Yes",
      "armchair": "No",
      "sitting_area": "Round Table with Two Chairs",
      "coffe_table": "No",
      "fridge": "No",
      "full_mirror": "Yes",
      "shower_bath": "Yes",
      "roll_top_bath": "No",
      "bathroom_windows": "No",
      "connecting": "No",
      "size": "M",
      "notes": "Zip & Link"
    },
    "112": {
      "floor": "Courtyard Ground Floor",
      "room_type": "T2",
      "view": "Beech Car Park",
      "desk": "Yes",
      "armchair": "No",
      "sitting_area": "Round Table with Two Chairs",
      "coffe_table": "No",
      "fridge": "No",
      "full_mirror": "Yes",
      "shower_bath": "Yes",
      "roll_top_bath": "No",
      "bathroom_windows": "No",
      "connecting": "No",
      "size": "M",
      "notes": "Zip & Link"
    },
    "113": {
      "floor": "Courtyard Ground Floor",
      "room_type": "D2",
      "view": "Beech Car Park",
      "desk": "Yes",
      "armchair": "No",
      "sitting_area": "Round Table with Two Chairs",
      "coffe_table": "No",
      "fridge": "No",
      "full_mirror": "Yes",
      "shower_bath": "Yes",
      "roll_top_bath": "No",
      "bathroom_windows": "No",
      "connecting": "No",
      "size": "M",
      "notes": ""
    },
    "114": {
      "floor": "Courtyard Ground Floor",
      "room_type": "D2",
      "view": "Oak Car Park",
      "desk": "Yes",
      "armchair": "No",
      "sitting_area": "Round Table with Two Chairs",
      "coffe_table": "No",
      "fridge": "No",
      "full_mirror": "Yes",
      "shower_bath": "Yes",
      "roll_top_bath": "No",
      "bathroom_windows": "No",
      "connecting": "No",
      "size": "M",
      "notes": ""
    },
    "115": {
      "floor": "Courtyard Ground Floor",
      "room_type": "D2",
      "view": "Oak Car Park",
      "desk": "Yes",
      "armchair": "No",
      "sitting_area": "Round Table with Two Chairs",
      "coffe_table": "No",
      "fridge": "No",
      "full_mirror": "Yes",
      "shower_bath": "Yes",
      "roll_top_bath": "No",
      "bathroom_windows": "No",
      "connecting": "No",
      "size": "M",
      "notes": ""
    },
    "116": {
      "floor": "Courtyard Ground Floor",
      "room_type": "D2",
      "view": "Oak Car Park",
      "desk": "Yes",
      "armchair": "No",
      "sitting_area": "Round Table with Two Chairs",
      "coffe_table": "No",
      "fridge": "No",
      "full_mirror": "Yes",
      "shower_bath": "Yes",
      "roll_top_bath": "No",
      "bathroom_windows": "No",
      "connecting": "No",
      "size": "M",
      "notes": "Patio With No Furniture"
    },
    "117": {
      "floor": "Courtyard Ground Floor",
      "room_type": "D2",
      "view": "Oak Car Park",
      "desk": "Yes",
      "armchair": "No",
      "sitting_area": "Round Table with Two Chairs",
      "coffe_table": "No",
      "fridge": "No",
      "full_mirror": "Yes",
      "shower_bath": "Yes",
      "roll_top_bath": "No",
      "bathroom_windows": "No",
      "connecting": "No",
      "size": "M",
      "notes": ""
    },
    "118": {
      "floor": "Courtyard Ground Floor",
      "room_type": "D2",
      "view": "Woods",
      "desk": "Yes",
      "armchair": "No",
      "sitting_area": "Round Table with Two Chairs",
      "coffe_table": "No",
      "fridge": "No",
      "full_mirror": "Yes",
      "shower_bath": "Yes",
      "roll_top_bath": "No",
      "bathroom_windows": "No",
      "connecting": "No",
      "size": "M",
      "notes": ""
    },
    "119": {
      "floor": "Courtyard Ground Floor",
      "room_type": "T2",
      "view": "Woods",
      "desk": "Yes",
      "armchair": "No",
      "sitting_area": "Round Table with Two Chairs",
      "coffe_table": "No",
      "fridge": "No",
      "full_mirror": "Yes",
      "shower_bath": "Yes",
      "roll_top_bath": "No",
      "bathroom_windows": "No",
      "connecting": "Yes",
      "size": "M",
      "notes": "Zip & Link"
    },
    "120": {
      "floor": "Courtyard Ground Floor",
      "room_type": "T2",
      "view": "Woods",
      "desk": "Yes",
      "armchair": "No",
      "sitting_area": "Round Table with Two Chairs",
      "coffe_table": "No",
      "fridge": "No",
      "full_mirror": "Yes",
      "shower_bath": "Yes",
      "roll_top_bath": "No",
      "bathroom_windows": "No",
      "connecting": "Yes",
      "size": "M",
      "notes": "Zip & Link"
    },
    "121": {
      "floor": "Courtyard Ground Floor",
      "room_type": "T2",
      "view": "Woods",
      "desk": "Yes",
      "armchair": "No",
      "sitting_area": "Round Table with Two Chairs",
      "coffe_table": "No",
      "fridge": "No",
      "full_mirror": "Yes",
      "shower_bath": "Yes",
      "roll_top_bath": "No",
      "bathroom_windows": "No",
      "connecting": "Yes",
      "size": "M",
      "notes": "Zip & Link"
    },
    "122": {
      "floor": "Courtyard Ground Floor",
      "room_type": "T2",
      "view": "Woods",
      "desk": "Yes",
      "armchair": "No",
      "sitting_area": "Round Table with Two Chairs",
      "coffe_table": "No",
      "fridge": "No",
      "full_mirror": "Yes",
      "shower_bath": "Yes",
      "roll_top_bath": "No",
      "bathroom_windows": "No",
      "connecting": "Yes",
      "size": "M",
      "notes": "Zip & Link"
    },
    "123": {
      "floor": "Courtyard Ground Floor",
      "room_type": "T2",
      "view": "Woods",
      "desk": "Yes",
      "armchair": "No",
      "sitting_area": "Round Table with Two Chairs",
      "coffe_table": "No",
      "fridge": "No",
      "full_mirror": "Yes",
      "shower_bath": "Yes",
      "roll_top_bath": "No",
      "bathroom_windows": "No",
      "connecting": "No",
      "size": "M",
      "notes": "Zip & Link"
    },
    "124": {
      "floor": "Courtyard Ground Floor",
      "room_type": "T2",
      "view": "Woods",
      "desk": "Yes",
      "armchair": "No",
      "sitting_area": "Round Table with Two Chairs",
      "coffe_table": "No",
      "fridge": "No",
      "full_mirror": "Yes",
      "shower_bath": "Yes",
      "roll_top_bath": "No",
      "bathroom_windows": "No",
      "connecting": "No",
      "size": "M",
      "notes": "Zip & Link"
    },
    "125": {
      "floor": "Courtyard Ground Floor",
      "room_type": "T2",
      "view": "Woods",
      "desk": "Yes",
      "armchair": "No",
      "sitting_area": "Round Table with Two Chairs",
      "coffe_table": "No",
      "fridge": "No",
      "full_mirror": "Yes",
      "shower_bath": "Yes",
      "roll_top_bath": "No",
      "bathroom_windows": "No",
      "connecting": "No",
      "size": "M",
      "notes": "Zip & Link - Patio With No Furniture"
    },
    "126": {
      "floor": "Courtyard Ground Floor",
      "room_type": "T2",
      "view": "Woods",
      "desk": "Yes",
      "armchair": "No",
      "sitting_area": "Round Table with Two Chairs",
      "coffe_table": "No",
      "fridge": "No",
      "full_mirror": "Yes",
      "shower_bath": "Yes",
      "roll_top_bath": "No",
      "bathroom_windows": "No",
      "connecting": "No",
      "size": "M",
      "notes": "Zip & Link"
    },
    "127": {
      "floor": "Courtyard Ground Floor",
      "room_type": "D2",
      "view": "Woods",
      "desk": "Yes",
      "armchair": "No",
      "sitting_area": "Round Table with Two Chairs",
      "coffe_table": "No",
      "fridge": "No",
      "full_mirror": "Yes",
      "shower_bath": "Yes",
      "roll_top_bath": "No",
      "bathroom_windows": "No",
      "connecting": "No",
      "size": "M/L",
      "notes": ""
    },
    "128": {
      "floor": "Courtyard Ground Floor",
      "room_type": "D2",
      "view": "Woods",
      "desk": "Yes",
      "armchair": "No",
      "sitting_area": "Round Table with Two Chairs",
      "coffe_table": "No",
      "fridge": "No",
      "full_mirror": "Yes",
      "shower_bath": "Yes",
      "roll_top_bath": "No",
      "bathroom_windows": "No",
      "connecting": "No",
      "size": "M/L",
      "notes": ""
    },
    "129": {
      "floor": "Courtyard Ground Floor",
      "room_type": "D2",
      "view": "Woods",
      "desk": "Yes",
      "armchair": "No",
      "sitting_area": "Round Table with Two Chairs",
      "coffe_table": "No",
      "fridge": "No",
      "full_mirror": "Yes",
      "shower_bath": "Yes",
      "roll_top_bath": "No",
      "bathroom_windows": "No",
      "connecting": "No",
      "size": "M/L",
      "notes": ""
    },
    "130": {
      "floor": "Courtyard Ground Floor",
      "room_type": "D2",
      "view": "Courtyard Garden",
      "desk": "Yes",
      "armchair": "No",
      "sitting_area": "Round Table with One Chair",
      "coffe_table": "No",
      "fridge": "No",
      "full_mirror": "No",
      "shower_bath": "Yes",
      "roll_top_bath": "No",
      "bathroom_windows": "No",
      "connecting": "No",
      "size": "S",
      "notes": ""
    },
    "131": {
      "floor": "Courtyard Ground Floor",
      "room_type": "D2",
      "view": "Courtyard Garden",
      "desk": "Yes",
      "armchair": "No",
      "sitting_area": "One Chair",
      "coffe_table": "No",
      "fridge": "No",
      "full_mirror": "No",
      "shower_bath": "Yes",
      "roll_top_bath": "No",
      "bathroom_windows": "Yes",
      "connecting": "No",
      "size": "S",
      "notes": ""
    },
    "132": {
      "floor": "Courtyard Ground Floor",
      "room_type": "D2",
      "view": "Courtyard Garden",
      "desk": "Yes",
      "armchair": "No",
      "sitting_area": "Round Table with Two Chairs",
      "coffe_table": "No",
      "fridge": "No",
      "full_mirror": "Yes",
      "shower_bath": "Yes",
      "roll_top_bath": "No",
      "bathroom_windows": "Yes",
      "connecting": "No",
      "size": "S",
      "notes": ""
    },
    "133": {
      "floor": "Courtyard Ground Floor",
      "room_type": "D2",
      "view": "Courtyard Car Park",
      "desk": "Yes",
      "armchair": "No",
      "sitting_area": "Round Table with One Chair",
      "coffe_table": "No",
      "fridge": "No",
      "full_mirror": "Yes",
      "shower_bath": "Yes",
      "roll_top_bath": "No",
      "bathroom_windows": "No",
      "connecting": "No",
      "size": "S/M",
      "notes": ""
    },
    "134": {
      "floor": "Courtyard Ground Floor",
      "room_type": "D2",
      "view": "Courtyard Garden",
      "desk": "Yes",
      "armchair": "No",
      "sitting_area": "Round Table with Two Chairs",
      "coffe_table": "No",
      "fridge": "No",
      "full_mirror": "Yes",
      "shower_bath": "Yes",
      "roll_top_bath": "No",
      "bathroom_windows": "No",
      "connecting": "No",
      "size": "S",
      "notes": ""
    },
    "135": {
      "floor": "Courtyard Ground Floor",
      "room_type": "D2",
      "view": "Courtyard Garden",
      "desk": "Yes",
      "armchair": "No",
      "sitting_area": "Round Table with Two Chairs",
      "coffe_table": "No",
      "fridge": "No",
      "full_mirror": "Yes",
      "shower_bath": "Yes",
      "roll_top_bath": "No",
      "bathroom_windows": "No",
      "connecting": "No",
      "size": "S",
      "notes": ""
    },
    "136": {
      "floor": "Courtyard Ground Floor",
      "room_type": "DS2",
      "view": "Elm Car Park",
      "desk": "Yes",
      "armchair": "No",
      "sitting_area": "Round Table with Two Chairs and Sofa",
      "coffe_table": "No",
      "fridge": "No",
      "full_mirror": "Yes",
      "shower_bath": "Yes",
      "roll_top_bath": "No",
      "bathroom_windows": "No",
      "connecting": "No",
      "size": "M/L",
      "notes": "Zip & Link - Sofa Bed"
    },
    "137": {
      "floor": "Courtyard Ground Floor",
      "room_type": "DS2",
      "view": "Elm Car Park",
      "desk": "Yes",
      "armchair": "No",
      "sitting_area": "Round Table with Two Chairs and Sofa",
      "coffe_table": "No",
      "fridge": "No",
      "full_mirror": "Yes",
      "shower_bath": "Yes",
      "roll_top_bath": "No",
      "bathroom_windows": "No",
      "connecting": "No",
      "size": "M/L",
      "notes": "Zip & Link - Sofa Bed"
    },
    "138": {
      "floor": "Courtyard Ground Floor",
      "room_type": "DS2",
      "view": "Elm Car Park",
      "desk": "Yes",
      "armchair": "No",
      "sitting_area": "Round Table with Two Chairs and Sofa",
      "coffe_table": "No",
      "fridge": "No",
      "full_mirror": "Yes",
      "shower_bath": "Yes",
      "roll_top_bath": "No",
      "bathroom_windows": "No",
      "connecting": "No",
      "size": "M/L",
      "notes": "Zip & Link - Sofa Bed"
    },
    "139": {
      "floor": "Courtyard Ground Floor",
      "room_type": "DS2",
      "view": "Elm Car Park",
      "desk": "Yes",
      "armchair": "No",
      "sitting_area": "Round Table with Two Chairs and Sofa",
      "coffe_table": "No",
      "fridge": "No",
      "full_mirror": "Yes",
      "shower_bath": "Yes",
      "roll_top_bath": "No",
      "bathroom_windows": "No",
      "connecting": "No",
      "size": "M/L",
      "notes": "Zip & Link - Sofa Bed"
    },
    "140": {
      "floor": "Courtyard Ground Floor",
      "room_type": "DS2",
      "view": "Elm Car Park",
      "desk": "Yes",
      "armchair": "No",
      "sitting_area": "Round Table with Two Chairs and Sofa",
      "coffe_table": "No",
      "fridge": "No",
      "full_mirror": "Yes",
      "shower_bath": "Yes",
      "roll_top_bath": "No",
      "bathroom_windows": "No",
      "connecting": "No",
      "size": "M/L",
      "notes": "Zip & Link - Sofa Bed"
    },
    "141": {
      "floor": "Courtyard Ground Floor",
      "room_type": "DS2",
      "view": "Elm Car Park",
      "desk": "Yes",
      "armchair": "No",
      "sitting_area": "Round Table with Two Chairs and Sofa",
      "coffe_table": "No",
      "fridge": "No",
      "full_mirror": "Yes",
      "shower_bath": "Yes",
      "roll_top_bath": "No",
      "bathroom_windows": "No",
      "connecting": "No",
      "size": "M/L",
      "notes": "Zip & Link - Sofa Bed"
    },
    "142": {
      "floor": "Courtyard Ground Floor",
      "room_type": "DS2",
      "view": "Elm Car Park",
      "desk": "Yes",
      "armchair": "No",
      "sitting_area": "Round Table with Two Chairs and Sofa",
      "coffe_table": "No",
      "fridge": "No",
      "full_mirror": "Yes",
      "shower_bath": "Yes",
      "roll_top_bath": "No",
      "bathroom_windows": "No",
      "connecting": "No",
      "size": "M/L",
      "notes": "Zip & Link - Sofa Bed"
    },
    "143": {
      "floor": "Courtyard Ground Floor",
      "room_type": "DS2",
      "view": "Elm Car Park",
      "desk": "Yes",
      "armchair": "No",
      "sitting_area": "Round Table with Two Chairs",
      "coffe_table": "No",
      "fridge": "No",
      "full_mirror": "Yes",
      "shower_bath": "Yes",
      "roll_top_bath": "No",
      "bathroom_windows": "No",
      "connecting": "No",
      "size": "M/L",
      "notes": "Zip & Link - Sofa Bed"
    },
    "144": {
      "floor": "Courtyard Ground Floor",
      "room_type": "D2",
      "view": "Elm Car Park",
      "desk": "Yes",
      "armchair": "No",
      "sitting_area": "Round Table with Two Chairs",
      "coffe_table": "No",
      "fridge": "No",
      "full_mirror": "Yes",
      "shower_bath": "Yes",
      "roll_top_bath": "No",
      "bathroom_windows": "No",
      "connecting": "No",
      "size": "S",
      "notes": ""
    },
    "145": {
      "floor": "Courtyard Ground Floor",
      "room_type": "D2",
      "view": "Elm Car Park",
      "desk": "Yes",
      "armchair": "No",
      "sitting_area": "Round Table with Two Chairs",
      "coffe_table": "No",
      "fridge": "No",
      "full_mirror": "Yes",
      "shower_bath": "Yes",
      "roll_top_bath": "No",
      "bathroom_windows": "No",
      "connecting": "No",
      "size": "S",
      "notes": "Patio With No Furniture"
    },
    "146": {
      "floor": "Courtyard Ground Floor",
      "room_type": "D2",
      "view": "Elm Car Park",
      "desk": "Yes",
      "armchair": "No",
      "sitting_area": "Round Table with Two Chairs",
      "coffe_table": "No",
      "fridge": "No",
      "full_mirror": "Yes",
      "shower_bath": "Yes",
      "roll_top_bath": "No",
      "bathroom_windows": "Yes",
      "connecting": "No",
      "size": "M",
      "notes": ""
    },
    "147": {
      "floor": "Courtyard Ground Floor",
      "room_type": "D2",
      "view": "Elm Car Park",
      "desk": "Yes",
      "armchair": "No",
      "sitting_area": "Round Table with Two Chairs",
      "coffe_table": "No",
      "fridge": "No",
      "full_mirror": "Yes",
      "shower_bath": "Yes",
      "roll_top_bath": "No",
      "bathroom_windows": "Yes",
      "connecting": "No",
      "size": "M",
      "notes": ""
    },
    "148": {
      "floor": "Courtyard Ground Floor",
      "room_type": "T2",
      "view": "Elm Car Park",
      "desk": "Yes",
      "armchair": "No",
      "sitting_area": "Round Table with Two Chairs",
      "coffe_table": "No",
      "fridge": "No",
      "full_mirror": "Yes",
      "shower_bath": "Yes",
      "roll_top_bath": "No",
      "bathroom_windows": "No",
      "connecting": "No",
      "size": "M",
      "notes": "Zip & Link"
    },
    "149": {
      "floor": "Courtyard Ground Floor",
      "room_type": "D2",
      "view": "Walnut Car Park",
      "desk": "Yes",
      "armchair": "No",
      "sitting_area": "Round Table with Two Chairs",
      "coffe_table": "No",
      "fridge": "No",
      "full_mirror": "Yes",
      "shower_bath": "Yes",
      "roll_top_bath": "No",
      "bathroom_windows": "No",
      "connecting": "No",
      "size": "M",
      "notes": ""
    },
    "150": {
      "floor": "Courtyard Ground Floor",
      "room_type": "T2",
      "view": "Elm Car Park",
      "desk": "Yes",
      "armchair": "No",
      "sitting_area": "Round Table with Two Chairs",
      "coffe_table": "No",
      "fridge": "No",
      "full_mirror": "Yes",
      "shower_bath": "Yes",
      "roll_top_bath": "No",
      "bathroom_windows": "No",
      "connecting": "No",
      "size": "M",
      "notes": "Zip & Link"
    },
    "151": {
      "floor": "Courtyard Ground Floor",
      "room_type": "D2",
      "view": "Walnut Car Park",
      "desk": "Yes",
      "armchair": "No",
      "sitting_area": "Round Table with Two Chairs and Sofa",
      "coffe_table": "No",
      "fridge": "No",
      "full_mirror": "Yes",
      "shower_bath": "Yes",
      "roll_top_bath": "No",
      "bathroom_windows": "No",
      "connecting": "No",
      "size": "M",
      "notes": "Sofa Bed"
    },
    "152": {
      "floor": "Courtyard Ground Floor",
      "room_type": "D2",
      "view": "Elm Car Park",
      "desk": "Yes",
      "armchair": "No",
      "sitting_area": "Round Table with Two Chairs",
      "coffe_table": "No",
      "fridge": "No",
      "full_mirror": "Yes",
      "shower_bath": "Yes",
      "roll_top_bath": "No",
      "bathroom_windows": "Yes",
      "connecting": "No",
      "size": "M",
      "notes": ""
    },
    "153": {
      "floor": "Courtyard Ground Floor",
      "room_type": "D2",
      "view": "Elm Car Park",
      "desk": "Yes",
      "armchair": "No",
      "sitting_area": "Round Table with Two Chairs",
      "coffe_table": "No",
      "fridge": "No",
      "full_mirror": "Yes",
      "shower_bath": "Yes",
      "roll_top_bath": "No",
      "bathroom_windows": "Yes",
      "connecting": "No",
      "size": "M",
      "notes": ""
    },
    "160": {
      "floor": "Courtyard Ground Floor",
      "room_type": "DSP2",
      "view": "Walnut Car Park",
      "desk": "Yes",
      "armchair": "No",
      "sitting_area": "Round Table with Two Chairs",
      "coffe_table": "No",
      "fridge": "No",
      "full_mirror": "Yes",
      "shower_bath": "Yes",
      "roll_top_bath": "No",
      "bathroom_windows": "No",
      "connecting": "No",
      "size": "M",
      "notes": ""
    },
    "161": {
      "floor": "Courtyard Ground Floor",
      "room_type": "DSP2",
      "view": "Walnut Car Park",
      "desk": "Yes",
      "armchair": "No",
      "sitting_area": "Round Table with Two Chairs and Sofa",
      "coffe_table": "No",
      "fridge": "No",
      "full_mirror": "Yes",
      "shower_bath": "Yes",
      "roll_top_bath": "No",
      "bathroom_windows": "Yes",
      "connecting": "No",
      "size": "M/L",
      "notes": "Sofa Bed"
    },
    "162": {
      "floor": "Courtyard Ground Floor",
      "room_type": "DSP2",
      "view": "Walnut Car Park",
      "desk": "Yes",
      "armchair": "No",
      "sitting_area": "Round Table with Two Chairs",
      "coffe_table": "No",
      "fridge": "No",
      "full_mirror": "Yes",
      "shower_bath": "Yes",
      "roll_top_bath": "No",
      "bathroom_windows": "No",
      "connecting": "No",
      "size": "M/L",
      "notes": "Sofa Bed"
    },
    "163": {
      "floor": "Courtyard Ground Floor",
      "room_type": "DSP2",
      "view": "Walnut Car Park",
      "desk": "Yes",
      "armchair": "No",
      "sitting_area": "Round Table with Two Chairs",
      "coffe_table": "No",
      "fridge": "No",
      "full_mirror": "Yes",
      "shower_bath": "Yes",
      "roll_top_bath": "No",
      "bathroom_windows": "No",
      "connecting": "No",
      "size": "M/L",
      "notes": ""
    },
    "164": {
      "floor": "Courtyard Ground Floor",
      "room_type": "DSP2",
      "view": "Walnut Car Park",
      "desk": "Yes",
      "armchair": "No",
      "sitting_area": "Round Table with Two Chairs",
      "coffe_table": "No",
      "fridge": "No",
      "full_mirror": "Yes",
      "shower_bath": "Yes",
      "roll_top_bath": "No",
      "bathroom_windows": "Yes",
      "connecting": "No",
      "size": "M/L",
      "notes": ""
    },
    "165": {
      "floor": "Courtyard Ground Floor",
      "room_type": "D2",
      "view": "Maple Car Park & Orangery",
      "desk": "Yes",
      "armchair": "No",
      "sitting_area": "One Chair",
      "coffe_table": "No",
      "fridge": "No",
      "full_mirror": "No",
      "shower_bath": "Yes",
      "roll_top_bath": "No",
      "bathroom_windows": "No",
      "connecting": "No",
      "size": "S",
      "notes": ""
    },
    "166": {
      "floor": "Courtyard Ground Floor",
      "room_type": "D2",
      "view": "Maple Car Park & Orangery",
      "desk": "Yes",
      "armchair": "No",
      "sitting_area": "Round Table with Two Chairs",
      "coffe_table": "No",
      "fridge": "No",
      "full_mirror": "Yes",
      "shower_bath": "Yes",
      "roll_top_bath": "No",
      "bathroom_windows": "Yes",
      "connecting": "No",
      "size": "M",
      "notes": ""
    },
    "167": {
      "floor": "Courtyard Ground Floor",
      "room_type": "D2",
      "view": "Maple Car Park & Orangery",
      "desk": "Yes",
      "armchair": "No",
      "sitting_area": "Round Table with Two Chairs",
      "coffe_table": "No",
      "fridge": "No",
      "full_mirror": "Yes",
      "shower_bath": "Yes",
      "roll_top_bath": "No",
      "bathroom_windows": "Yes",
      "connecting": "No",
      "size": "M",
      "notes": ""
    },
    "168": {
      "floor": "Courtyard Ground Floor",
      "room_type": "D2",
      "view": "Walnut Car Park",
      "desk": "Yes",
      "armchair": "No",
      "sitting_area": "Round Table with Two Chairs",
      "coffe_table": "No",
      "fridge": "No",
      "full_mirror": "Yes",
      "shower_bath": "Yes",
      "roll_top_bath": "No",
      "bathroom_windows": "No",
      "connecting": "No",
      "size": "M",
      "notes": ""
    },
    "169": {
      "floor": "Courtyard Ground Floor",
      "room_type": "DS2",
      "view": "Walnut Car Park",
      "desk": "Yes",
      "armchair": "No",
      "sitting_area": "Round Table with Two Chairs and Sofa",
      "coffe_table": "No",
      "fridge": "No",
      "full_mirror": "Yes",
      "shower_bath": "Yes",
      "roll_top_bath": "No",
      "bathroom_windows": "No",
      "connecting": "No",
      "size": "M/L",
      "notes": "Zip & Link"
    },
    "170": {
      "floor": "Courtyard Ground Floor",
      "room_type": "DS2",
      "view": "Walnut Car Park & Ash Car Park",
      "desk": "Yes",
      "armchair": "No",
      "sitting_area": "Round Table with Two Chairs and Sofa",
      "coffe_table": "No",
      "fridge": "No",
      "full_mirror": "Yes",
      "shower_bath": "Yes",
      "roll_top_bath": "No",
      "bathroom_windows": "Yes",
      "connecting": "No",
      "size": "M/L",
      "notes": "Zip & Link - Sofa Bed"
    },
    "171": {
      "floor": "Courtyard Ground Floor",
      "room_type": "DS2",
      "view": "Maple Car Park & Orangery",
      "desk": "Yes",
      "armchair": "No",
      "sitting_area": "Round Table with Two Chairs and Sofa",
      "coffe_table": "No",
      "fridge": "No",
      "full_mirror": "Yes",
      "shower_bath": "Yes",
      "roll_top_bath": "No",
      "bathroom_windows": "No",
      "connecting": "No",
      "size": "M/L",
      "notes": "Sofa Bed"
    },
    "172": {
      "floor": "Courtyard Ground Floor",
      "room_type": "DS2",
      "view": "Maple Car Park & Orangery",
      "desk": "Yes",
      "armchair": "No",
      "sitting_area": "Round Table with Two Chairs and Sofa",
      "coffe_table": "No",
      "fridge": "No",
      "full_mirror": "Yes",
      "shower_bath": "Yes",
      "roll_top_bath": "No",
      "bathroom_windows": "No",
      "connecting": "No",
      "size": "M/L",
      "notes": "Sofa Bed"
    },
    "173": {
      "floor": "Courtyard Ground Floor",
      "room_type": "DS2",
      "view": "Maple Car Park & Orangery",
      "desk": "Yes",
      "armchair": "No",
      "sitting_area": "Round Table with Two Chairs and Sofa",
      "coffe_table": "No",
      "fridge": "No",
      "full_mirror": "Yes",
      "shower_bath": "Yes",
      "roll_top_bath": "No",
      "bathroom_windows": "No",
      "connecting": "No",
      "size": "M/L",
      "notes": "Sofa Bed"
    },
    "174": {
      "floor": "Courtyard Ground Floor",
      "room_type": "DS2",
      "view": "Maple Car Park & Orangery",
      "desk": "Yes",
      "armchair": "No",
      "sitting_area": "Round Table with Two Chairs and Sofa",
      "coffe_table": "No",
      "fridge": "No",
      "full_mirror": "Yes",
      "shower_bath": "Yes",
      "roll_top_bath": "No",
      "bathroom_windows": "No",
      "connecting": "No",
      "size": "M/L",
      "notes": "Sofa Bed"
    },
    "201": {
      "floor": "Courtyard First Floor",
      "room_type": "T2",
      "view": "Beech Car Park",
      "desk": "Yes",
      "armchair": "No",
      "sitting_area": "Round Table with Two Chairs",
      "coffe_table": "No",
      "fridge": "No",
      "full_mirror": "Yes",
      "shower_bath": "Yes",
      "roll_top_bath": "No",
      "bathroom_windows": "No",
      "connecting": "No",
      "size": "M/L",
      "notes": "Zip & Link"
    },
    "202": {
      "floor": "Courtyard First Floor",
      "room_type": "D2",
      "view": "Courtyard Car Park",
      "desk": "Yes",
      "armchair": "No",
      "sitting_area": "Round Table with Two Chairs",
      "coffe_table": "No",
      "fridge": "No",
      "full_mirror": "Yes",
      "shower_bath": "Yes",
      "roll_top_bath": "No",
      "bathroom_windows": "No",
      "connecting": "No",
      "size": "M/L",
      "notes": ""
    },
    "203": {
      "floor": "Courtyard First Floor",
      "room_type": "D2",
      "view": "Beech Car Park",
      "desk": "Yes",
      "armchair": "No",
      "sitting_area": "Round Table with Two Chairs",
      "coffe_table": "No",
      "fridge": "No",
      "full_mirror": "Yes",
      "shower_bath": "Yes",
      "roll_top_bath": "No",
      "bathroom_windows": "No",
      "connecting": "No",
      "size": "M",
      "notes": ""
    },
    "204": {
      "floor": "Courtyard First Floor",
      "room_type": "D2",
      "view": "No View",
      "desk": "Yes",
      "armchair": "No",
      "sitting_area": "Round Table with Two Chairs",
      "coffe_table": "No",
      "fridge": "No",
      "full_mirror": "Yes",
      "shower_bath": "Yes",
      "roll_top_bath": "No",
      "bathroom_windows": "No",
      "connecting": "No",
      "size": "M",
      "notes": ""
    },
    "206": {
      "floor": "Courtyard First Floor",
      "room_type": "DS2",
      "view": "Courtyard Garden",
      "desk": "Yes",
      "armchair": "No",
      "sitting_area": "Round Table with Two Chairs",
      "coffe_table": "No",
      "fridge": "No",
      "full_mirror": "Yes",
      "shower_bath": "Yes",
      "roll_top_bath": "No",
      "bathroom_windows": "No",
      "connecting": "No",
      "size": "L",
      "notes": "Sofa Bed"
    },
    "207": {
      "floor": "Courtyard First Floor",
      "room_type": "D2",
      "view": "Beech Car Park",
      "desk": "Yes",
      "armchair": "No",
      "sitting_area": "Round Table with Two Chairs",
      "coffe_table": "No",
      "fridge": "No",
      "full_mirror": "Yes",
      "shower_bath": "Yes",
      "roll_top_bath": "No",
      "bathroom_windows": "No",
      "connecting": "No",
      "size": "M/L",
      "notes": "Sofa Bed"
    },
    "208": {
      "floor": "Courtyard First Floor",
      "room_type": "DS2",
      "view": "Courtyard Garden",
      "desk": "Yes",
      "armchair": "No",
      "sitting_area": "Round Table with One Chair",
      "coffe_table": "No",
      "fridge": "No",
      "full_mirror": "Yes",
      "shower_bath": "Yes",
      "roll_top_bath": "No",
      "bathroom_windows": "No",
      "connecting": "No",
      "size": "M",
      "notes": ""
    },
    "209": {
      "floor": "Courtyard First Floor",
      "room_type": "DS2",
      "view": "Courtyard Garden",
      "desk": "Yes",
      "armchair": "No",
      "sitting_area": "Round Table with Two Chairs",
      "coffe_table": "No",
      "fridge": "No",
      "full_mirror": "Yes",
      "shower_bath": "Yes",
      "roll_top_bath": "No",
      "bathroom_windows": "No",
      "connecting": "No",
      "size": "M",
      "notes": ""
    },
    "210": {
      "floor": "Courtyard First Floor",
      "room_type": "DS2",
      "view": "Courtyard Garden",
      "desk": "Yes",
      "armchair": "No",
      "sitting_area": "Round Table with Two Chairs",
      "coffe_table": "No",
      "fridge": "No",
      "full_mirror": "Yes",
      "shower_bath": "Yes",
      "roll_top_bath": "No",
      "bathroom_windows": "No",
      "connecting": "No",
      "size": "M",
      "notes": ""
    },
    "211": {
      "floor": "Courtyard First Floor",
      "room_type": "D2",
      "view": "Beech Car Park",
      "desk": "Yes",
      "armchair": "No",
      "sitting_area": "Round Table with Two Chairs",
      "coffe_table": "No",
      "fridge": "No",
      "full_mirror": "Yes",
      "shower_bath": "Yes",
      "roll_top_bath": "No",
      "bathroom_windows": "No",
      "connecting": "No",
      "size": "M",
      "notes": ""
    },
    "212": {
      "floor": "Courtyard First Floor",
      "room_type": "DS2",
      "view": "Courtyard Garden",
      "desk": "Yes",
      "armchair": "No",
      "sitting_area": "Round Table with Two Chairs",
      "coffe_table": "No",
      "fridge": "No",
      "full_mirror": "Yes",
      "shower_bath": "Yes",
      "roll_top_bath": "No",
      "bathroom_windows": "No",
      "connecting": "No",
      "size": "M",
      "notes": ""
    },
    "213": {
      "floor": "Courtyard First Floor",
      "room_type": "D2",
      "view": "Beech Car Park",
      "desk": "Yes",
      "armchair": "No",
      "sitting_area": "Round Table with Two Chairs",
      "coffe_table": "No",
      "fridge": "No",
      "full_mirror": "Yes",
      "shower_bath": "Yes",
      "roll_top_bath": "No",
      "bathroom_windows": "No",
      "connecting": "No",
      "size": "M",
      "notes": ""
    },
    "214": {
      "floor": "Courtyard First Floor",
      "room_type": "D2",
      "view": "Beech Car Park",
      "desk": "Yes",
      "armchair": "No",
      "sitting_area": "Round Table with Two Chairs",
      "coffe_table": "No",
      "fridge": "No",
      "full_mirror": "Yes",
      "shower_bath": "Yes",
      "roll_top_bath": "No",
      "bathroom_windows": "No",
      "connecting": "No",
      "size": "M",
      "notes": ""
    },
    "215": {
      "floor": "Courtyard First Floor",
      "room_type": "D2",
      "view": "Beech Car Park",
      "desk": "Yes",
      "armchair": "No",
      "sitting_area": "Round Table with Two Chairs",
      "coffe_table": "No",
      "fridge": "No",
      "full_mirror": "Yes",
      "shower_bath": "Yes",
      "roll_top_bath": "No",
      "bathroom_windows": "No",
      "connecting": "No",
      "size": "M",
      "notes": ""
    },
    "216": {
      "floor": "Courtyard First Floor",
      "room_type": "D2",
      "view": "Oak Car Park",
      "desk": "Yes",
      "armchair": "No",
      "sitting_area": "Round Table with One Chair",
      "coffe_table": "No",
      "fridge": "No",
      "full_mirror": "Yes",
      "shower_bath": "Yes",
      "roll_top_bath": "No",
      "bathroom_windows": "No",
      "connecting": "No",
      "size": "M",
      "notes": ""
    },
    "217": {
      "floor": "Courtyard First Floor",
      "room_type": "D2",
      "view": "Oak Car Park",
      "desk": "Yes",
      "armchair": "No",
      "sitting_area": "Round Table with Two Chairs",
      "coffe_table": "No",
      "fridge": "No",
      "full_mirror": "Yes",
      "shower_bath": "Yes",
      "roll_top_bath": "No",
      "bathroom_windows": "No",
      "connecting": "No",
      "size": "M",
      "notes": ""
    },
    "218": {
      "floor": "Courtyard First Floor",
      "room_type": "D2",
      "view": "Oak Car Park",
      "desk": "Yes",
      "armchair": "No",
      "sitting_area": "Round Table with Two Chairs",
      "coffe_table": "No",
      "fridge": "No",
      "full_mirror": "Yes",
      "shower_bath": "Yes",
      "roll_top_bath": "No",
      "bathroom_windows": "No",
      "connecting": "No",
      "size": "M",
      "notes": ""
    },
    "219": {
      "floor": "Courtyard First Floor",
      "room_type": "D2",
      "view": "Oak Car Park",
      "desk": "Yes",
      "armchair": "No",
      "sitting_area": "Round Table with Two Chairs",
      "coffe_table": "No",
      "fridge": "No",
      "full_mirror": "Yes",
      "shower_bath": "Yes",
      "roll_top_bath": "No",
      "bathroom_windows": "No",
      "connecting": "No",
      "size": "M",
      "notes": ""
    },
    "220": {
      "floor": "Courtyard First Floor",
      "room_type": "D2",
      "view": "Woods",
      "desk": "Yes",
      "armchair": "No",
      "sitting_area": "Round Table with Two Chairs",
      "coffe_table": "No",
      "fridge": "No",
      "full_mirror": "Yes",
      "shower_bath": "Yes",
      "roll_top_bath": "No",
      "bathroom_windows": "No",
      "connecting": "No",
      "size": "M/L",
      "notes": ""
    },
    "221": {
      "floor": "Courtyard First Floor",
      "room_type": "D2",
      "view": "Woods",
      "desk": "Yes",
      "armchair": "No",
      "sitting_area": "Round Table with Two Chairs",
      "coffe_table": "No",
      "fridge": "No",
      "full_mirror": "Yes",
      "shower_bath": "Yes",
      "roll_top_bath": "No",
      "bathroom_windows": "No",
      "connecting": "No",
      "size": "M/L",
      "notes": ""
    },
    "222": {
      "floor": "Courtyard First Floor",
      "room_type": "D2",
      "view": "Woods",
      "desk": "Yes",
      "armchair": "No",
      "sitting_area": "Round Table with Two Chairs",
      "coffe_table": "No",
      "fridge": "No",
      "full_mirror": "Yes",
      "shower_bath": "Yes",
      "roll_top_bath": "No",
      "bathroom_windows": "No",
      "connecting": "No",
      "size": "M/L",
      "notes": ""
    },
    "223": {
      "floor": "Courtyard First Floor",
      "room_type": "D2",
      "view": "Woods",
      "desk": "Yes",
      "armchair": "No",
      "sitting_area": "Round Table with Two Chairs",
      "coffe_table": "No",
      "fridge": "No",
      "full_mirror": "Yes",
      "shower_bath": "Yes",
      "roll_top_bath": "No",
      "bathroom_windows": "No",
      "connecting": "No",
      "size": "M/L",
      "notes": ""
    },
    "224": {
      "floor": "Courtyard First Floor",
      "room_type": "D2",
      "view": "Woods",
      "desk": "Yes",
      "armchair": "No",
      "sitting_area": "Round Table with One Chair",
      "coffe_table": "No",
      "fridge": "No",
      "full_mirror": "Yes",
      "shower_bath": "Yes",
      "roll_top_bath": "No",
      "bathroom_windows": "No",
      "connecting": "No",
      "size": "M/L",
      "notes": ""
    },
    "225": {
      "floor": "Courtyard First Floor",
      "room_type": "T2",
      "view": "Woods",
      "desk": "Yes",
      "armchair": "No",
      "sitting_area": "Round Table with Two Chairs",
      "coffe_table": "No",
      "fridge": "No",
      "full_mirror": "Yes",
      "shower_bath": "Yes",
      "roll_top_bath": "No",
      "bathroom_windows": "No",
      "connecting": "No",
      "size": "M/L",
      "notes": "Zip & Link"
    },
    "226": {
      "floor": "Courtyard First Floor",
      "room_type": "D2",
      "view": "Woods",
      "desk": "Yes",
      "armchair": "No",
      "sitting_area": "Round Table with Two Chairs",
      "coffe_table": "No",
      "fridge": "No",
      "full_mirror": "Yes",
      "shower_bath": "Yes",
      "roll_top_bath": "No",
      "bathroom_windows": "No",
      "connecting": "No",
      "size": "M/L",
      "notes": ""
    },
    "227": {
      "floor": "Courtyard First Floor",
      "room_type": "D2",
      "view": "Woods",
      "desk": "Yes",
      "armchair": "No",
      "sitting_area": "Round Table with Two Chairs",
      "coffe_table": "No",
      "fridge": "No",
      "full_mirror": "Yes",
      "shower_bath": "Yes",
      "roll_top_bath": "No",
      "bathroom_windows": "No",
      "connecting": "No",
      "size": "M",
      "notes": ""
    },
    "228": {
      "floor": "Courtyard First Floor",
      "room_type": "D2",
      "view": "Woods",
      "desk": "Yes",
      "armchair": "No",
      "sitting_area": "Round Table with Two Chairs",
      "coffe_table": "No",
      "fridge": "No",
      "full_mirror": "Yes",
      "shower_bath": "Yes",
      "roll_top_bath": "No",
      "bathroom_windows": "No",
      "connecting": "No",
      "size": "M",
      "notes": ""
    },
    "229": {
      "floor": "Courtyard First Floor",
      "room_type": "D2",
      "view": "Woods",
      "desk": "Yes",
      "armchair": "No",
      "sitting_area": "Round Table with Two Chairs",
      "coffe_table": "No",
      "fridge": "No",
      "full_mirror": "Yes",
      "shower_bath": "Yes",
      "roll_top_bath": "No",
      "bathroom_windows": "No",
      "connecting": "No",
      "size": "M",
      "notes": ""
    },
    "230": {
      "floor": "Courtyard First Floor",
      "room_type": "D2",
      "view": "Woods",
      "desk": "Yes",
      "armchair": "No",
      "sitting_area": "Round Table with Two Chairs",
      "coffe_table": "No",
      "fridge": "No",
      "full_mirror": "Yes",
      "shower_bath": "Yes",
      "roll_top_bath": "No",
      "bathroom_windows": "No",
      "connecting": "No",
      "size": "M",
      "notes": ""
    },
    "231": {
      "floor": "Courtyard First Floor",
      "room_type": "D2",
      "view": "Woods",
      "desk": "Yes",
      "armchair": "No",
      "sitting_area": "Round Table with Two Chairs",
      "coffe_table": "No",
      "fridge": "No",
      "full_mirror": "Yes",
      "shower_bath": "Yes",
      "roll_top_bath": "No",
      "bathroom_windows": "No",
      "connecting": "No",
      "size": "M",
      "notes": ""
    },
    "232": {
      "floor": "Courtyard First Floor",
      "room_type": "T2",
      "view": "Elm Car Park",
      "desk": "Yes",
      "armchair": "No",
      "sitting_area": "Round Table with One Chair",
      "coffe_table": "No",
      "fridge": "No",
      "full_mirror": "Yes",
      "shower_bath": "Yes",
      "roll_top_bath": "No",
      "bathroom_windows": "No",
      "connecting": "No",
      "size": "M/L",
      "notes": "Zip & Link"
    },
    "233": {
      "floor": "Courtyard First Floor",
      "room_type": "T2",
      "view": "Elm Car Park",
      "desk": "Yes",
      "armchair": "No",
      "sitting_area": "Round Table with Two Chairs",
      "coffe_table": "No",
      "fridge": "No",
      "full_mirror": "Yes",
      "shower_bath": "Yes",
      "roll_top_bath": "No",
      "bathroom_windows": "No",
      "connecting": "No",
      "size": "M/L",
      "notes": "Zip & Link - Sofa Bed"
    },
    "234": {
      "floor": "Courtyard First Floor",
      "room_type": "T2",
      "view": "Elm Car Park",
      "desk": "Yes",
      "armchair": "No",
      "sitting_area": "Round Table with Two Chairs",
      "coffe_table": "No",
      "fridge": "No",
      "full_mirror": "Yes",
      "shower_bath": "Yes",
      "roll_top_bath": "No",
      "bathroom_windows": "No",
      "connecting": "No",
      "size": "M/L",
      "notes": "Zip & Link"
    },
    "235": {
      "floor": "Courtyard First Floor",
      "room_type": "T2",
      "view": "Elm Car Park",
      "desk": "Yes",
      "armchair": "No",
      "sitting_area": "Round Table with Two Chairs",
      "coffe_table": "No",
      "fridge": "No",
      "full_mirror": "Yes",
      "shower_bath": "Yes",
      "roll_top_bath": "No",
      "bathroom_windows": "No",
      "connecting": "No",
      "size": "M/L",
      "notes": "Zip & Link"
    },
    "236": {
      "floor": "Courtyard First Floor",
      "room_type": "T2",
      "view": "Elm Car Park",
      "desk": "Yes",
      "armchair": "No",
      "sitting_area": "Round Table with Two Chairs",
      "coffe_table": "No",
      "fridge": "No",
      "full_mirror": "Yes",
      "shower_bath": "Yes",
      "roll_top_bath": "No",
      "bathroom_windows": "No",
      "connecting": "No",
      "size": "M/L",
      "notes": "Zip & Link"
    },
    "237": {
      "floor": "Courtyard First Floor",
      "room_type": "D2",
      "view": "Elm Car Park",
      "desk": "Yes",
      "armchair": "No",
      "sitting_area": "Round Table with Two Chairs",
      "coffe_table": "No",
      "fridge": "No",
      "full_mirror": "Yes",
      "shower_bath": "Yes",
      "roll_top_bath": "No",
      "bathroom_windows": "No",
      "connecting": "No",
      "size": "M",
      "notes": ""
    },
    "238": {
      "floor": "Courtyard First Floor",
      "room_type": "T2",
      "view": "Elm Car Park",
      "desk": "Yes",
      "armchair": "No",
      "sitting_area": "Round Table with Two Chairs",
      "coffe_table": "No",
      "fridge": "No",
      "full_mirror": "Yes",
      "shower_bath": "Yes",
      "roll_top_bath": "No",
      "bathroom_windows": "No",
      "connecting": "No",
      "size": "M",
      "notes": "Zip & Link"
    },
    "239": {
      "floor": "Courtyard First Floor",
      "room_type": "T2",
      "view": "Elm Car Park",
      "desk": "Yes",
      "armchair": "No",
      "sitting_area": "Round Table with Two Chairs",
      "coffe_table": "No",
      "fridge": "No",
      "full_mirror": "Yes",
      "shower_bath": "Yes",
      "roll_top_bath": "No",
      "bathroom_windows": "No",
      "connecting": "No",
      "size": "M",
      "notes": "Zip & Link"
    },
    "240": {
      "floor": "Courtyard First Floor",
      "room_type": "D2",
      "view": "Courtyard Garden",
      "desk": "Yes",
      "armchair": "No",
      "sitting_area": "Round Table with One Chair",
      "coffe_table": "No",
      "fridge": "No",
      "full_mirror": "Yes",
      "shower_bath": "Yes",
      "roll_top_bath": "No",
      "bathroom_windows": "No",
      "connecting": "No",
      "size": "M",
      "notes": ""
    },
    "241": {
      "floor": "Courtyard First Floor",
      "room_type": "D2",
      "view": "Courtyard Garden",
      "desk": "Yes",
      "armchair": "No",
      "sitting_area": "Round Table with Two Chairs",
      "coffe_table": "No",
      "fridge": "No",
      "full_mirror": "Yes",
      "shower_bath": "Yes",
      "roll_top_bath": "No",
      "bathroom_windows": "No",
      "connecting": "No",
      "size": "M",
      "notes": ""
    },
    "242": {
      "floor": "Courtyard First Floor",
      "room_type": "T2",
      "view": "Courtyard Car Park",
      "desk": "Yes",
      "armchair": "No",
      "sitting_area": "Round Table with Two Chairs",
      "coffe_table": "No",
      "fridge": "No",
      "full_mirror": "Yes",
      "shower_bath": "Yes",
      "roll_top_bath": "No",
      "bathroom_windows": "No",
      "connecting": "No",
      "size": "M",
      "notes": "Zip & Link"
    },
    "243": {
      "floor": "Courtyard First Floor",
      "room_type": "T2",
      "view": "Courtyard Garden",
      "desk": "Yes",
      "armchair": "No",
      "sitting_area": "Round Table with Two Chairs",
      "coffe_table": "No",
      "fridge": "No",
      "full_mirror": "Yes",
      "shower_bath": "Yes",
      "roll_top_bath": "No",
      "bathroom_windows": "No",
      "connecting": "No",
      "size": "M",
      "notes": "Zip & Link"
    },
    "244": {
      "floor": "Courtyard First Floor",
      "room_type": "D2",
      "view": "Courtyard Garden",
      "desk": "Yes",
      "armchair": "No",
      "sitting_area": "Round Table with Two Chairs",
      "coffe_table": "No",
      "fridge": "No",
      "full_mirror": "Yes",
      "shower_bath": "Yes",
      "roll_top_bath": "No",
      "bathroom_windows": "No",
      "connecting": "No",
      "size": "M",
      "notes": ""
    },
    "245": {
      "floor": "Courtyard First Floor",
      "room_type": "D2",
      "view": "Courtyard Garden",
      "desk": "Yes",
      "armchair": "No",
      "sitting_area": "Round Table with Two Chairs",
      "coffe_table": "No",
      "fridge": "No",
      "full_mirror": "Yes",
      "shower_bath": "Yes",
      "roll_top_bath": "No",
      "bathroom_windows": "No",
      "connecting": "No",
      "size": "M",
      "notes": ""
    },
    "246": {
      "floor": "Courtyard First Floor",
      "room_type": "DS2",
      "view": "Courtyard Garden",
      "desk": "Yes",
      "armchair": "No",
      "sitting_area": "Round Table with Two Chairs",
      "coffe_table": "No",
      "fridge": "No",
      "full_mirror": "Yes",
      "shower_bath": "Yes",
      "roll_top_bath": "No",
      "bathroom_windows": "No",
      "connecting": "No",
      "size": "L",
      "notes": "Zip & Link - Sofa Bed"
    },
    "247": {
      "floor": "Courtyard First Floor",
      "room_type": "DS2",
      "view": "Courtyard Car Park",
      "desk": "Yes",
      "armchair": "No",
      "sitting_area": "Round Table with Two Chairs",
      "coffe_table": "No",
      "fridge": "No",
      "full_mirror": "Yes",
      "shower_bath": "Yes",
      "roll_top_bath": "No",
      "bathroom_windows": "No",
      "connecting": "No",
      "size": "L",
      "notes": "Zip & Link - Sofa Bed"
    },
    "248": {
      "floor": "Courtyard First Floor",
      "room_type": "D2",
      "view": "Elm Car Park",
      "desk": "Yes",
      "armchair": "No",
      "sitting_area": "Round Table with One Chair",
      "coffe_table": "No",
      "fridge": "No",
      "full_mirror": "Yes",
      "shower_bath": "Yes",
      "roll_top_bath": "No",
      "bathroom_windows": "No",
      "connecting": "No",
      "size": "M",
      "notes": ""
    },
    "249": {
      "floor": "Courtyard First Floor",
      "room_type": "D2",
      "view": "Elm Car Park",
      "desk": "Yes",
      "armchair": "No",
      "sitting_area": "Round Table with Two Chairs",
      "coffe_table": "No",
      "fridge": "No",
      "full_mirror": "Yes",
      "shower_bath": "Yes",
      "roll_top_bath": "No",
      "bathroom_windows": "No",
      "connecting": "No",
      "size": "M",
      "notes": ""
    },
    "250": {
      "floor": "Courtyard First Floor",
      "room_type": "T2",
      "view": "Elm Car Park",
      "desk": "Yes",
      "armchair": "No",
      "sitting_area": "Round Table with Two Chairs",
      "coffe_table": "No",
      "fridge": "No",
      "full_mirror": "Yes",
      "shower_bath": "Yes",
      "roll_top_bath": "No",
      "bathroom_windows": "No",
      "connecting": "No",
      "size": "M",
      "notes": "Zip & Link"
    },
    "251": {
      "floor": "Courtyard First Floor",
      "room_type": "T2",
      "view": "Elm Car Park",
      "desk": "Yes",
      "armchair": "No",
      "sitting_area": "Round Table with Two Chairs",
      "coffe_table": "No",
      "fridge": "No",
      "full_mirror": "Yes",
      "shower_bath": "Yes",
      "roll_top_bath": "No",
      "bathroom_windows": "No",
      "connecting": "No",
      "size": "M",
      "notes": "Zip & Link"
    },
    "252": {
      "floor": "Courtyard First Floor",
      "room_type": "D2",
      "view": "Walnut Car Park",
      "desk": "Yes",
      "armchair": "No",
      "sitting_area": "Round Table with Two Chairs",
      "coffe_table": "No",
      "fridge": "No",
      "full_mirror": "Yes",
      "shower_bath": "Yes",
      "roll_top_bath": "No",
      "bathroom_windows": "No",
      "connecting": "No",
      "size": "M",
      "notes": ""
    },
    "253": {
      "floor": "Courtyard First Floor",
      "room_type": "D2",
      "view": "Walnut Car Park",
      "desk": "Yes",
      "armchair": "No",
      "sitting_area": "Round Table with Two Chairs",
      "coffe_table": "No",
      "fridge": "No",
      "full_mirror": "Yes",
      "shower_bath": "Yes",
      "roll_top_bath": "No",
      "bathroom_windows": "No",
      "connecting": "No",
      "size": "M",
      "notes": ""
    },
    "254": {
      "floor": "Courtyard First Floor",
      "room_type": "D2",
      "view": "Elm Car Park",
      "desk": "Yes",
      "armchair": "No",
      "sitting_area": "Round Table with Two Chairs",
      "coffe_table": "No",
      "fridge": "No",
      "full_mirror": "Yes",
      "shower_bath": "Yes",
      "roll_top_bath": "No",
      "bathroom_windows": "No",
      "connecting": "No",
      "size": "M/L",
      "notes": ""
    },
    "280": {
      "floor": "Courtyard First Floor",
      "room_type": "DS2",
      "view": "Walnut Car Park",
      "desk": "Yes",
      "armchair": "No",
      "sitting_area": "Round Table with Two Chairs",
      "coffe_table": "No",
      "fridge": "No",
      "full_mirror": "Yes",
      "shower_bath": "Yes",
      "roll_top_bath": "No",
      "bathroom_windows": "No",
      "connecting": "No",
      "size": "M/L",
      "notes": "Zip & Link"
    },
    "281": {
      "floor": "Courtyard First Floor",
      "room_type": "DS2",
      "view": "Walnut Car Park",
      "desk": "Yes",
      "armchair": "No",
      "sitting_area": "Round Table with One Chair",
      "coffe_table": "No",
      "fridge": "No",
      "full_mirror": "Yes",
      "shower_bath": "Yes",
      "roll_top_bath": "No",
      "bathroom_windows": "No",
      "connecting": "No",
      "size": "M/L",
      "notes": "Zip & Link"
    },
    "282": {
      "floor": "Courtyard First Floor",
      "room_type": "DS2",
      "view": "Walnut Car Park",
      "desk": "Yes",
      "armchair": "No",
      "sitting_area": "Round Table with Two Chairs",
      "coffe_table": "No",
      "fridge": "No",
      "full_mirror": "Yes",
      "shower_bath": "Yes",
      "roll_top_bath": "No",
      "bathroom_windows": "No",
      "connecting": "No",
      "size": "M/L",
      "notes": "Zip & Link"
    },
    "283": {
      "floor": "Courtyard First Floor",
      "room_type": "D2",
      "view": "Walnut Car Park",
      "desk": "Yes",
      "armchair": "No",
      "sitting_area": "Round Table with Two Chairs",
      "coffe_table": "No",
      "fridge": "No",
      "full_mirror": "Yes",
      "shower_bath": "Yes",
      "roll_top_bath": "No",
      "bathroom_windows": "No",
      "connecting": "No",
      "size": "M/L",
      "notes": "Zip & Link"
    },
    "284": {
      "floor": "Courtyard First Floor",
      "room_type": "DS2",
      "view": "Maple Car Park & Orangery",
      "desk": "Yes",
      "armchair": "No",
      "sitting_area": "Round Table with Two Chairs",
      "coffe_table": "No",
      "fridge": "No",
      "full_mirror": "Yes",
      "shower_bath": "Yes",
      "roll_top_bath": "No",
      "bathroom_windows": "No",
      "connecting": "No",
      "size": "M/L",
      "notes": "Zip & Link"
    },
    "285": {
      "floor": "Courtyard First Floor",
      "room_type": "D2",
      "view": "Maple Car Park & Orangery",
      "desk": "Yes",
      "armchair": "No",
      "sitting_area": "Round Table with Two Chairs",
      "coffe_table": "No",
      "fridge": "No",
      "full_mirror": "Yes",
      "shower_bath": "Yes",
      "roll_top_bath": "No",
      "bathroom_windows": "No",
      "connecting": "No",
      "size": "M/L",
      "notes": "Zip & Link"
    },
    "286": {
      "floor": "Courtyard First Floor",
      "room_type": "D2",
      "view": "Walnut Car Park",
      "desk": "Yes",
      "armchair": "No",
      "sitting_area": "Round Table with Two Chairs",
      "coffe_table": "No",
      "fridge": "No",
      "full_mirror": "Yes",
      "shower_bath": "Yes",
      "roll_top_bath": "No",
      "bathroom_windows": "No",
      "connecting": "No",
      "size": "M/L",
      "notes": "Zip & Link"
    },
    "287": {
      "floor": "Courtyard First Floor",
      "room_type": "DS2",
      "view": "Walnut Car Park & Ash Car Park",
      "desk": "Yes",
      "armchair": "No",
      "sitting_area": "Round Table with Two Chairs",
      "coffe_table": "No",
      "fridge": "No",
      "full_mirror": "Yes",
      "shower_bath": "Yes",
      "roll_top_bath": "No",
      "bathroom_windows": "No",
      "connecting": "No",
      "size": "M/L",
      "notes": "Zip & Link"
    },
    "288": {
      "floor": "Courtyard First Floor",
      "room_type": "DS2",
      "view": "Walnut Car Park & Ash Car Park",
      "desk": "Yes",
      "armchair": "No",
      "sitting_area": "Round Table with Two Chairs",
      "coffe_table": "No",
      "fridge": "No",
      "full_mirror": "Yes",
      "shower_bath": "Yes",
      "roll_top_bath": "No",
      "bathroom_windows": "No",
      "connecting": "No",
      "size": "M/L",
      "notes": "Zip & Link"
    },
    "289": {
      "floor": "Courtyard First Floor",
      "room_type": "T2",
      "view": "Maple Car Park & Orangery",
      "desk": "Yes",
      "armchair": "No",
      "sitting_area": "Round Table with One Chair",
      "coffe_table": "No",
      "fridge": "No",
      "full_mirror": "Yes",
      "shower_bath": "Yes",
      "roll_top_bath": "No",
      "bathroom_windows": "No",
      "connecting": "No",
      "size": "M/L",
      "notes": "Zip & Link"
    },
    "290": {
      "floor": "Courtyard First Floor",
      "room_type": "D2",
      "view": "Maple Car Park & Orangery",
      "desk": "Yes",
      "armchair": "No",
      "sitting_area": "Round Table with Two Chairs",
      "coffe_table": "No",
      "fridge": "No",
      "full_mirror": "Yes",
      "shower_bath": "Yes",
      "roll_top_bath": "No",
      "bathroom_windows": "No",
      "connecting": "No",
      "size": "M",
      "notes": ""
    },
    "291": {
      "floor": "Courtyard First Floor",
      "room_type": "D2",
      "view": "Maple Car Park & Orangery",
      "desk": "Yes",
      "armchair": "No",
      "sitting_area": "Round Table with Two Chairs",
      "coffe_table": "No",
      "fridge": "No",
      "full_mirror": "Yes",
      "shower_bath": "Yes",
      "roll_top_bath": "No",
      "bathroom_windows": "No",
      "connecting": "No",
      "size": "M",
      "notes": ""
    },
    "292": {
      "floor": "Courtyard First Floor",
      "room_type": "D2",
      "view": "Maple Car Park & Orangery",
      "desk": "Yes",
      "armchair": "No",
      "sitting_area": "Round Table with Two Chairs",
      "coffe_table": "No",
      "fridge": "No",
      "full_mirror": "Yes",
      "shower_bath": "Yes",
      "roll_top_bath": "No",
      "bathroom_windows": "No",
      "connecting": "No",
      "size": "M",
      "notes": ""
    },
    "293": {
      "floor": "Courtyard First Floor",
      "room_type": "D2",
      "view": "Maple Car Park & Orangery",
      "desk": "Yes",
      "armchair": "No",
      "sitting_area": "Round Table with Two Chairs",
      "coffe_table": "No",
      "fridge": "No",
      "full_mirror": "Yes",
      "shower_bath": "Yes",
      "roll_top_bath": "No",
      "bathroom_windows": "No",
      "connecting": "No",
      "size": "M",
      "notes": ""
    },
    "294": {
      "floor": "Courtyard First Floor",
      "room_type": "D2",
      "view": "Maple Car Park & Orangery",
      "desk": "Yes",
      "armchair": "No",
      "sitting_area": "Round Table with Two Chairs",
      "coffe_table": "No",
      "fridge": "No",
      "full_mirror": "Yes",
      "shower_bath": "Yes",
      "roll_top_bath": "No",
      "bathroom_windows": "No",
      "connecting": "No",
      "size": "M",
      "notes": ""
    }
  }